Lab 4
…
Question 2 Obtain the player-level offensive statistics. Namely, for each player and each type of statistics, obtain the sum of the statistics in all games.

dat1 <- offClean %>%
  group_by(Name, stat) %>%
  replace(is.na(.), 0) %>%
  summarize(statSum = sum(score))

## `summarise()` has grouped output by 'Name'. You can override using the `.groups` argument.

dat1

## # A tibble: 160 x 3
## # Groups:   Name [16]
##    Name          stat            statSum
##    <chr>         <chr>             <dbl>
##  1 Akers, Landen Passing_CMP-ATT       0
##  2 Akers, Landen Passing_INT           0
##  3 Akers, Landen Passing_TD            0
##  4 Akers, Landen Passing_YDS           0
##  5 Akers, Landen Receiving_REC        18
##  6 Akers, Landen Receiving_TD          1
##  7 Akers, Landen Receiving_YDS       269
##  8 Akers, Landen Rushing_ATT           0
##  9 Akers, Landen Rushing_TD            0
## 10 Akers, Landen Rushing_YDS           0
## # ... with 150 more rows
…
Question 6 How many players are there from each state?

dat3 <- bioClean %>%
  group_by(State) %>%
  summarize(
    statePlayers = n(),
    once = (statePlayers == 1)
  ) %>%
  select(-once)
dat3

## # A tibble: 21 x 2
##    State        statePlayers
##    <chr>               <int>
##  1 " Ariz."                4
##  2 " Ark."                 1
##  3 " Australia"            1
##  4 " Calif."               2
##  5 " Fla."                14
##  6 " Ga."                  3
##  7 " Ill."                 6
##  8 " Iowa"                42
##  9 " Kan."                 4
## 10 " Mich"                 1
## # ... with 11 more rows
…
