Lab3
…
dat%>% 
  select(happiness, marital)%>% 
  group_by(marital)%>%
  count(happiness)

## # A tibble: 36 x 3
## # Groups:   marital [6]
##    marital  happiness          n
##    <chr>    <chr>          <int>
##  1 Divorced Don't know         3
##  2 Divorced No answer         58
##  3 Divorced Not applicable   688
##  4 Divorced Not too happy   1450
##  5 Divorced Pretty happy    4683
##  6 Divorced Very happy      1497
##  7 Married  Don't know        12
##  8 Married  No answer        123
##  9 Married  Not applicable  2221
## 10 Married  Not too happy   2431
## # ... with 26 more rows
…
dat%>%
  select(happiness, marital, partyid)%>%
  group_by(marital, partyid)%>%
  count(happiness)

## # A tibble: 271 x 4
## # Groups:   marital, partyid [58]
##    marital  partyid      happiness          n
##    <chr>    <chr>        <chr>          <int>
##  1 Divorced Ind,near dem No answer          3
##  2 Divorced Ind,near dem Not applicable    74
##  3 Divorced Ind,near dem Not too happy    200
##  4 Divorced Ind,near dem Pretty happy     625
##  5 Divorced Ind,near dem Very happy       178
##  6 Divorced Ind,near rep No answer          6
##  7 Divorced Ind,near rep Not applicable    55
##  8 Divorced Ind,near rep Not too happy    106
##  9 Divorced Ind,near rep Pretty happy     435
## 10 Divorced Ind,near rep Very happy       154
## # ... with 261 more rows
…
dat%>%
  select(marital, educ)%>%
  group_by(marital)%>%
  count(educ)

## # A tibble: 119 x 3
## # Groups:   marital [6]
##    marital  educ     n
##    <fct>   <dbl> <int>
##  1 Married     0    67
##  2 Married     1    25
##  3 Married     2    75
##  4 Married     3   123
##  5 Married     4   149
##  6 Married     5   193
##  7 Married     6   437
##  8 Married     7   483
##  9 Married     8  1398
## 10 Married     9  1050
## # ... with 109 more rows
…
